\relax 
\providecommand\hyper@newdestlabel[2]{}
\catcode `"\active 
\providecommand\HyperFirstAtBeginDocument{\AtBeginDocument}
\HyperFirstAtBeginDocument{\ifx\hyper@anchor\@undefined
\global\let\oldcontentsline\contentsline
\gdef\contentsline#1#2#3#4{\oldcontentsline{#1}{#2}{#3}}
\global\let\oldnewlabel\newlabel
\gdef\newlabel#1#2{\newlabelxx{#1}#2}
\gdef\newlabelxx#1#2#3#4#5#6{\oldnewlabel{#1}{{#2}{#3}}}
\AtEndDocument{\ifx\hyper@anchor\@undefined
\let\contentsline\oldcontentsline
\let\newlabel\oldnewlabel
\fi}
\fi}
\global\let\hyper@last\relax 
\gdef\HyperFirstAtBeginDocument#1{#1}
\providecommand\HyField@AuxAddToFields[1]{}
\providecommand\HyField@AuxAddToCoFields[2]{}
\babel@aux{slovene}{}
\babel@aux{slovene}{}
\@writefile{toc}{\contentsline {section}{\numberline {1}Reguralizacija.}{1}{section.1}}
\@writefile{lof}{\contentsline {figure}{\numberline {1}{\ignorespaces Rezultat regularizacije pri {\ttfamily  lambda} = 0.0}}{1}{figure.1}}
\newlabel{slika1}{{1}{1}{Rezultat regularizacije pri {\ttfamily lambda} = 0.0}{figure.1}{}}
\@writefile{lof}{\contentsline {figure}{\numberline {2}{\ignorespaces Rezultat regularizacije pri {\ttfamily  lambda} = 0.5}}{1}{figure.2}}
\newlabel{slika2}{{2}{1}{Rezultat regularizacije pri {\ttfamily lambda} = 0.5}{figure.2}{}}
\@writefile{lof}{\contentsline {figure}{\numberline {3}{\ignorespaces Rezultat regularizacije pri {\ttfamily  lambda} = 250.0}}{1}{figure.3}}
\newlabel{slika3}{{3}{1}{Rezultat regularizacije pri {\ttfamily lambda} = 250.0}{figure.3}{}}
\@writefile{toc}{\contentsline {subsection}{\numberline {1.1}To\IeC {\v c}nosti.}{1}{subsection.1.1}}
\@writefile{lot}{\contentsline {table}{\numberline {1}{\ignorespaces Rezultati razli\IeC {\v c}nih metrik to\IeC {\v c}nosti v odvisnosti od {\ttfamily  lambda} parametra.}}{1}{table.1}}
\@writefile{toc}{\contentsline {section}{\numberline {2}Izjava o izdelavi doma\IeC {\v c}e naloge.}{2}{section.2}}
