\relax 
\providecommand\hyper@newdestlabel[2]{}
\catcode `"\active 
\providecommand\HyperFirstAtBeginDocument{\AtBeginDocument}
\HyperFirstAtBeginDocument{\ifx\hyper@anchor\@undefined
\global\let\oldcontentsline\contentsline
\gdef\contentsline#1#2#3#4{\oldcontentsline{#1}{#2}{#3}}
\global\let\oldnewlabel\newlabel
\gdef\newlabel#1#2{\newlabelxx{#1}#2}
\gdef\newlabelxx#1#2#3#4#5#6{\oldnewlabel{#1}{{#2}{#3}}}
\AtEndDocument{\ifx\hyper@anchor\@undefined
\let\contentsline\oldcontentsline
\let\newlabel\oldnewlabel
\fi}
\fi}
\global\let\hyper@last\relax 
\gdef\HyperFirstAtBeginDocument#1{#1}
\providecommand\HyField@AuxAddToFields[1]{}
\providecommand\HyField@AuxAddToCoFields[2]{}
\babel@aux{slovene}{}
\babel@aux{slovene}{}
\@writefile{toc}{\contentsline {subsection}{\numberline {0.1}Podatki.}{1}{subsection.0.1}}
\@writefile{toc}{\contentsline {section}{\numberline {1}Ra\IeC {\v c}unanje dr\IeC {\v z}av.}{1}{section.1}}
\@writefile{toc}{\contentsline {section}{\numberline {2}Skupine in njihove preferen\IeC {\v c}ne izbire.}{1}{section.2}}
\@writefile{lot}{\contentsline {table}{\numberline {1}{\ignorespaces Skupine dr\IeC {\v z}av in njihove preferen\IeC {\v c}ne (in nepreferen\IeC {\v c}ne) dr\IeC {\v z}ave.}}{2}{table.1}}
\@writefile{lof}{\contentsline {figure}{\numberline {1}{\ignorespaces Tekstovni dendogram, ki prikazuje rezultat hiearhi\IeC {\v c}nega razvr\IeC {\v s}\IeC {\v c}anja.}}{3}{figure.1}}
\newlabel{slika1}{{1}{3}{Tekstovni dendogram, ki prikazuje rezultat hiearhičnega razvrščanja}{figure.1}{}}
\@writefile{toc}{\contentsline {section}{\numberline {3}Izjava o izdelavi doma\IeC {\v c}e naloge.}{3}{section.3}}
