\relax 
\providecommand\hyper@newdestlabel[2]{}
\catcode `"\active 
\providecommand\HyperFirstAtBeginDocument{\AtBeginDocument}
\HyperFirstAtBeginDocument{\ifx\hyper@anchor\@undefined
\global\let\oldcontentsline\contentsline
\gdef\contentsline#1#2#3#4{\oldcontentsline{#1}{#2}{#3}}
\global\let\oldnewlabel\newlabel
\gdef\newlabel#1#2{\newlabelxx{#1}#2}
\gdef\newlabelxx#1#2#3#4#5#6{\oldnewlabel{#1}{{#2}{#3}}}
\AtEndDocument{\ifx\hyper@anchor\@undefined
\let\contentsline\oldcontentsline
\let\newlabel\oldnewlabel
\fi}
\fi}
\global\let\hyper@last\relax 
\gdef\HyperFirstAtBeginDocument#1{#1}
\providecommand\HyField@AuxAddToFields[1]{}
\providecommand\HyField@AuxAddToCoFields[2]{}
\babel@aux{slovene}{}
\babel@aux{slovene}{}
\@writefile{toc}{\contentsline {section}{\numberline {1}Izbrani jeziki.}{1}{section.1}}
\@writefile{toc}{\contentsline {section}{\numberline {2}Rezultati razvr\IeC {\v s}\IeC {\v c}anja.}{1}{section.2}}
\@writefile{lot}{\contentsline {table}{\numberline {1}{\ignorespaces Rezultat najbolj\IeC {\v s}ega razvr\IeC {\v s}\IeC {\v c}anja.}}{2}{table.1}}
\newlabel{Tab1}{{1}{2}{Rezultat najboljšega razvrščanja}{table.1}{}}
\@writefile{lot}{\contentsline {table}{\numberline {2}{\ignorespaces Rezultat najslab\IeC {\v s}ega razvr\IeC {\v s}\IeC {\v c}anja.}}{2}{table.2}}
\@writefile{lof}{\contentsline {figure}{\numberline {1}{\ignorespaces Rezultat 100-kratnega razvr\IeC {\v s}\IeC {\v c}anja po metodi k-memoids ocenjenih po metodi silhuete.}}{3}{figure.1}}
\newlabel{slika1}{{1}{3}{Rezultat 100-kratnega razvrščanja po metodi k-memoids ocenjenih po metodi silhuete}{figure.1}{}}
\@writefile{toc}{\contentsline {section}{\numberline {3}Napovedovanje jezika.}{3}{section.3}}
\@writefile{toc}{\contentsline {section}{\numberline {4}Hiearhi\IeC {\v c}no razvr\IeC {\v s}\IeC {\v c}anje (dodatna naloga).}{4}{section.4}}
\@writefile{lof}{\contentsline {figure}{\numberline {2}{\ignorespaces Dendogram, ki prikazuje rezultat hiearhi\IeC {\v c}nega razv\IeC {\v s}\IeC {\v c}enja.}}{4}{figure.2}}
\newlabel{slika2}{{2}{4}{Dendogram, ki prikazuje rezultat hiearhičnega razvščenja}{figure.2}{}}
\@writefile{toc}{\contentsline {section}{\numberline {5}Razvr\IeC {\v s}\IeC {\v c}anje nad \IeC {\v c}lanki razli\IeC {\v c}nih jezikov(dodatna naloga).}{4}{section.5}}
\@writefile{lot}{\contentsline {table}{\numberline {3}{\ignorespaces Rezultat razvr\IeC {\v s}\IeC {\v c}anja nad \IeC {\v c}lanki iz izbranih jezikov.}}{4}{table.3}}
\@writefile{toc}{\contentsline {section}{\numberline {6}Izjava o izdelavi doma\IeC {\v c}e naloge.}{4}{section.6}}
